{
 "1234":{
   "name":"Яблоки",
   "cost":20.3000,
   "description":"Сочные",
   "order":3,
   "img":"apple.png"
   },
 "1235":{
   "name":"Вишня",
   "cost":30.20,
   "description":"Сочные",
   "order":3,
   "img":"cherry.png"
   },
 "1236":{
   "name":"Виногорад",
   "cost":120.50,
   "description":"Сочные",
   "order":3,
   "img":"grapes.png"
   },
 "1237":{
   "name":"Персик",
   "cost":50.0,
   "description":"Сочные",
   "order":2,
   "img":"peach.png"
   },
 "1238":{
   "name":"Слива",
   "cost":25.0,
   "description":"Сочные",
   "order":3,
   "img":"plum.png"
   }
}
